axi4/test_run_dir/axi4.RVCounterMain540092527/RVCounter.vcd
$date
2020-11-20T05:04+0000
$end
$version
0.2
$end
$comment

$end
$timescale 1ns  $end
$scope module RVCounter $end
 $var wire 12 ! _GEN_2 $end
 $var wire 1 " _T $end
 $var wire 12 # _GEN_5 $end
 $var wire 1 $ io_ready $end
 $var wire 12 % io_xoutput $end
 $var wire 12 & _GEN_1 $end
 $var wire 12 ' xcnt $end
 $var wire 12 ( _GEN_4 $end
 $var wire 1 ) clock $end
 $var wire 1 * io_user $end
 $var wire 1 + io_last $end
 $var wire 1 , io_valid $end
 $var wire 12 - ycnt $end
 $var wire 12 . _GEN_0 $end
 $var wire 12 / io_youtput $end
 $var wire 1 0 reset $end
 $var wire 12 1 _GEN_3 $end
$upscope $end
$enddefinitions $end
$dumpvars
b000000000000 &
b000000000000 -
b000000000000 '
b000000000000 .
b000000000000 /
b000000000000 !
b000000000000 (
00
0"
0)
b000000000000 1
0*
b000000000000 #
0+
0,
0$
b000000000000 %
$end
#0
10
b000000000001 .
#1
1)
#6
0)
#11
1)
#16
0)
#21
1)
#26
0)
#31
1)
#36
0)
#41
1)
#46
10
0)
#51
1)
#56
0)
#61
1)
#66
0)
#71
1)
#76
0)
#81
1)
#86
0)
#91
1)
#96
0)
#101
1)
#106
0)
#111
1)
#116
0)
#121
1)
#126
0)
#131
1)
#136
0)
#141
1)
#146
b000000000001 !
00
1"
1*
1$
b000000000001 (
1,
0)
#151
b000000000010 !
b000000000001 %
b000000000010 .
b000000000001 '
1)
#156
0*
b000000000010 (
0)
#161
b000000000011 !
b000000000010 %
b000000000011 .
b000000000010 '
b000000000011 (
1)
#166
0)
#171
b000000000100 !
b000000000011 %
b000000000100 .
b000000000011 '
b000000000100 (
1)
#176
0)
#181
b000000000101 !
b000000000100 %
b000000000101 .
b000000000100 '
b000000000101 (
1)
#186
0)
#191
b000000000110 !
b000000000101 %
b000000000110 .
b000000000101 '
b000000000110 (
1)
#196
0)
#201
b000000000111 !
b000000000110 %
b000000000111 .
b000000000110 '
b000000000111 (
1)
#206
0)
#211
b000000001000 !
b000000000111 %
b000000001000 .
b000000000111 '
b000000001000 (
1)
#216
0)
#221
b000000001001 !
b000000001000 %
b000000001001 .
b000000001000 '
b000000001001 (
1)
#226
0)
#231
b000000001010 !
b000000001001 %
b000000001010 .
b000000001001 '
b000000001010 (
1)
#236
0)
#241
b000000001011 !
b000000001010 %
b000000001011 .
b000000001010 '
b000000001011 (
1)
