axi4/test_run_dir/axi4.RVCounterMain800149794/RVCounter.vcd
$date
2020-11-20T01:34+0000
$end
$version
0.2
$end
$comment

$end
$timescale 1ns  $end
$scope module RVCounter $end
 $var wire 1 ! _T $end
 $var wire 12 " cnt $end
 $var wire 1 # io_ready $end
 $var wire 12 $ io_output $end
 $var wire 12 % _GEN_1 $end
 $var wire 1 & clock $end
 $var wire 1 ' io_user $end
 $var wire 1 ( io_valid $end
 $var wire 12 ) _GEN_0 $end
 $var wire 1 * reset $end
$upscope $end
$enddefinitions $end
$dumpvars
b000000000000 )
0&
0#
0*
0'
b000000000000 $
0!
b000000000000 %
b000000000000 "
0(
$end
#0
1*
b000000000001 )
#1
1&
#6
0&
#11
1&
#16
0&
#21
1&
#26
0&
#31
1&
#36
0&
#41
1&
#46
0&
1*
#51
1&
#56
0&
#61
1&
#66
0&
#71
1&
#76
0&
#81
1&
#86
0&
#91
1&
#96
0&
#101
1&
#106
0&
#111
1&
#116
0&
#121
1&
#126
0&
#131
1&
#136
0&
#141
1&
#146
1!
b000000000001 %
0&
1#
0*
1'
1(
#151
b000000000001 "
1&
b000000000001 $
#156
b000000000010 %
0&
0'
b000000000010 )
#161
b000000000011 %
b000000000010 "
1&
b000000000010 $
b000000000011 )
#166
0&
#171
b000000000100 %
b000000000011 "
1&
b000000000011 $
b000000000100 )
#176
0&
#181
b000000000101 %
b000000000100 "
1&
b000000000100 $
b000000000101 )
#186
0&
#191
b000000000110 %
b000000000101 "
1&
b000000000101 $
b000000000110 )
#196
0&
#201
b000000000111 %
b000000000110 "
1&
b000000000110 $
b000000000111 )
#206
0&
#211
b000000001000 %
b000000000111 "
1&
b000000000111 $
b000000001000 )
#216
0&
#221
b000000001001 %
b000000001000 "
1&
b000000001000 $
b000000001001 )
#226
0&
#231
b000000001010 %
b000000001001 "
1&
b000000001001 $
b000000001010 )
#236
0&
#241
b000000001011 %
b000000001010 "
1&
b000000001010 $
b000000001011 )
